Extract estimated states from an ATA model. — components.ATA • fable.ata
…
...
Unused.

    Value

    A [fabletools::dable()] containing estimated states.

    Examples

library(fable.ata)
as_tsibble(USAccDeaths) %>%
  model(ata = AutoATA(value ~ trend("A") + season("A"))) %>% components()
#> # A dable: 72 x 6 [1M]
#> # Key:     .model [1]
#> # :        value = level + season + remainder
#>    .model    index value  level season remainder
#>    <chr>     <mth> <dbl>  <dbl>  <dbl>     <dbl>
#>  1 ata    1973 Jan  9007  9813.  -806.      NA  
#>  2 ata    1973 Feb  8106  9629. -1523.    -184. 
#>  3 ata    1973 Mar  8928  9669.  -741.      39.5
#>  4 ata    1973 Apr  9137  9652.  -515.     -17.1
#>  5 ata    1973 May 10017  9677.   340.      25.6
#>  6 ata    1973 Jun 10826 10081.   745.     404. 
#>  7 ata    1973 Jul 11317  9638.  1679.    -444. 
#>  8 ata    1973 Aug 10744  9758.   986.     120. 
#>  9 ata    1973 Sep  9713  9822.  -109.      64.6
#> 10 ata    1973 Oct  9938  9674.   264.    -148. 
#> # … with 62 more rows
…
